%YAML 1.1
%TAG !u! tag:unity3d.com,2011:
--- !u!74 &7400000
AnimationClip:
  m_ObjectHideFlags: 0
  m_PrefabParentObject: {fileID: 0}
  m_PrefabInternal: {fileID: 0}
  m_Name: Win.Panel
  serializedVersion: 6
  m_Legacy: 0
  m_Compressed: 0
  m_UseHighQualityCurve: 1
  m_RotationCurves: []
  m_CompressedRotationCurves: []
  m_EulerCurves: []
  m_PositionCurves: []
  m_ScaleCurves: []
  m_FloatCurves:
  - curve:
      serializedVersion: 2
      m_Curve:
      - time: 0
        value: 855
        inSlope: -1615.9999
        outSlope: -1615.9999
        tangentMode: 10
      - time: 0.5
        value: 47.00006
        inSlope: -2564.356
        outSlope: 1586.2523
        tangentMode: 1
      - time: 0.8333333
        value: 271
        inSlope: -83.99991
        outSlope: -83.99991
        tangentMode: 10
      - time: 1.1
        value: 47.000046
        inSlope: -1570.9968
        outSlope: 641.2602
        tangentMode: 1
      - time: 1.3333334
        value: 102
        inSlope: 14.732117
        outSlope: 14.732117
        tangentMode: 10
      - time: 1.6
        value: 47.000046
        inSlope: -465.33914
        outSlope: -206.24985
        tangentMode: 1
      m_PreInfinity: 2
      m_PostInfinity: 2
      m_RotationOrder: 4
    attribute: m_AnchoredPosition.y
    path: Image
    classID: 224
    script: {fileID: 0}
  m_PPtrCurves: []
  m_SampleRate: 30
  m_WrapMode: 0
  m_Bounds:
    m_Center: {x: 0, y: 0, z: 0}
    m_Extent: {x: 0, y: 0, z: 0}
  m_ClipBindingConstant:
    genericBindings:
    - path: 83635035
      attribute: 538195251
      script: {fileID: 0}
      classID: 224
      customType: 0
      isPPtrCurve: 0
    pptrCurveMapping: []
  m_AnimationClipSettings:
    serializedVersion: 2
    m_AdditiveReferencePoseClip: {fileID: 0}
    m_AdditiveReferencePoseTime: 0
    m_StartTime: 0
    m_StopTime: 1.6
    m_OrientationOffsetY: 0
    m_Level: 0
    m_CycleOffset: 0
    m_HasAdditiveReferencePose: 0
    m_LoopTime: 0
    m_LoopBlend: 0
    m_LoopBlendOrientation: 0
    m_LoopBlendPositionY: 0
    m_LoopBlendPositionXZ: 0
    m_KeepOriginalOrientation: 0
    m_KeepOriginalPositionY: 1
    m_KeepOriginalPositionXZ: 0
    m_HeightFromFeet: 0
    m_Mirror: 0
  m_EditorCurves:
  - curve:
      serializedVersion: 2
      m_Curve:
      - time: 0
        value: 855
        inSlope: -1615.9999
        outSlope: -1615.9999
        tangentMode: 10
      - time: 0.5
        value: 47.00006
        inSlope: -2564.356
        outSlope: 1586.2523
        tangentMode: 1
      - time: 0.8333333
        value: 271
        inSlope: -83.99991
        outSlope: -83.99991
        tangentMode: 10
      - time: 1.1
        value: 47.000046
        inSlope: -1570.9968
        outSlope: 641.2602
        tangentMode: 1
      - time: 1.3333334
        value: 102
        inSlope: 14.732117
        outSlope: 14.732117
        tangentMode: 10
      - time: 1.6
        value: 47.000046
        inSlope: -465.33914
        outSlope: -206.24985
        tangentMode: 1
      m_PreInfinity: 2
      m_PostInfinity: 2
      m_RotationOrder: 4
    attribute: m_AnchoredPosition.y
    path: Image
    classID: 224
    script: {fileID: 0}
  m_EulerEditorCurves: []
  m_HasGenericRootTransform: 0
  m_HasMotionFloatCurves: 0
  m_GenerateMotionCurves: 0
  m_Events: []
